* Already processed by Phase * 1
* Without/with database * 1
* Database file name *  dart_atmosphere.db
* Type of model gas *  USSTD76
* Type of model gas cumulative *  USSTD76
* Type of model gas temperature *  USSTD76
* Number of aerosols *  1
* Type of model aerosols *  USSTD76_RURALV23
* Type of model aerosols cumulative *  RURALV23
* Type of model hg parameters *  RURALV23
* Precipitable water amount checkbox *  0
* Aerosol Distribution (0:exp; 1:profile) * 1
* Height of sensor (m) * 3000
* g1 [0 1] * 0.8103671337
* g2 [0 1] * 0
* a [0 1] * 1
* Spectral sampling * 3.9
* Total aerosols optical_depth * 0.02521524914
* Aerosol single_scattering albedo * 0.8689103966
* Gas transmittance (scattering) * 1
* H2O Transmittance (absorption) * 0.9819016212
* O3  Transmittance (absorption) * 1
* N2  Transmittance (absorption) * 0.9725097673
* CO2 Transmittance (absorption) * 0.9990247785
* CO  Transmittance (absorption) * 1
* CH4 Transmittance (absorption) * 0.9915901808
* N2O Transmittance (absorption) * 0.9112399897
* O2  Transmittance (absorption) * 1
* NH3  Transmittance (absorption) * 1
* NO  Transmittance (absorption) * 1
* NO2  Transmittance (absorption) * 1
* SO2  Transmittance (absorption) * 1
* HNO3  Transmittance (absorption) * 1
* Other_gas Transmittance (abs.) * 1
* Eq._gas Transmittance (absorption_UpandDown) * 0.7524582052
* Vertical Distribution: Altitude(km) ScatGas(-) H2O(atm-cm/km) O3(atm-cm/km) N2(mol/cm2 km) CO2(atm-cm/km) CO(atm-cm/km) CH4(atm-cm/km) N2O(atm-cm/km) O2(atm-cm/km) NH3(atm-cm/km) NO(atm-cm/km) NO2(atm-cm/km) SO2(atm-cm/km) HNO3(atm-cm/km) OtherGas(atm-cm/km) Aerosol1 (550nm extinction (KM-1)) (nb layers)* 36
0 0.9479 734 0.00252 0.8241 34.6 0.0142 0.161 0.0303 19800 4.74e-05 2.84e-05 2.18e-06 2.84e-05 4.74e-06 5.761612328e-05 0.4785147896
1 0.8602 522 0.00252 0.6787 31.4 0.0125 0.146 0.0275 18000 4.3e-05 2.58e-05 1.98e-06 2.36e-05 5.13e-06 5.224508244e-05 0.3001317446
2 0.7789 361 0.00252 0.5564 28.4 0.0109 0.132 0.0249 16300 3.61e-05 2.34e-05 1.79e-06 1.84e-05 5.4e-06 4.743513031e-05 0.1880744837
3 0.7036 224 0.00233 0.454 25.7 0.00949 0.12 0.0225 14700 2.67e-05 2.11e-05 1.62e-06 1.34e-05 5.57e-06 4.295716728e-05 0.1047886818
4 0.634 137 0.00215 0.3687 23.1 0.00832 0.108 0.0203 13300 1.83e-05 1.9e-05 1.46e-06 9.26e-06 5.62e-06 3.873719625e-05 0.05602863042
5 0.5699 79.6 0.00215 0.2978 20.8 0.00743 0.0969 0.0182 11900 1.16e-05 1.71e-05 1.31e-06 6.72e-06 5.56e-06 3.544120623e-05 0.02819602969
6 0.5108 47.3 0.0021 0.2393 18.6 0.00658 0.0868 0.0163 10700 7.46e-06 1.53e-05 1.17e-06 4.96e-06 5.67e-06 3.22892112e-05 0.0233503103
7 0.4566 26.1 0.00229 0.1912 16.7 0.00569 0.0776 0.0146 9540 4.51e-06 1.37e-05 1.05e-06 3.79e-06 5.75e-06 2.934491218e-05 0.01886801987
8 0.4069 14.9 0.00243 0.1518 14.9 0.00482 0.069 0.013 8500 2.64e-06 1.22e-05 9.36e-07 2.93e-06 5.66e-06 2.652171016e-05 0.01020629646
9 0.3614 5.72 0.00331 0.1198 13.2 0.00395 0.0612 0.0115 7550 1.36e-06 1.08e-05 8.38e-07 2.37e-06 5.53e-06 2.347390814e-05 0.005512005804
10 0.32 2.24 0.0042 0.0939 11.7 0.00319 0.0539 0.0102 6690 6.5e-07 9.6e-06 7.62e-07 1.95e-06 5.57e-06 2.069780413e-05 0.003452575064
11 0.2823 1.02 0.00607 0.07308 10.3 0.00253 0.0473 0.00886 5900 3.08e-07 8.47e-06 7.4e-07 1.63e-06 5.7e-06 1.819549711e-05 0.002419831119
12 0.2414 0.46 0.00747 0.05344 8.81 0.00189 0.0401 0.00747 5040 1.52e-07 7.24e-06 7.6e-07 1.35e-06 5.82e-06 1.55029831e-05 0.00194131633
13 0.2063 0.224 0.00793 0.03903 7.53 0.00131 0.0339 0.00629 4310 6.44e-08 6.17e-06 9.18e-07 1.15e-06 5.69e-06 1.341209008e-05 0.001565773077
14 0.1763 0.105 0.00887 0.02851 6.44 0.000886 0.0287 0.00529 3690 1.96e-08 5.2e-06 1.32e-06 9.94e-07 5.87e-06 1.158640007e-05 0.001338629981
15 0.1507 0.0754 0.0098 0.02083 5.5 0.000594 0.0242 0.00444 3150 6.74e-09 4.26e-06 2.58e-06 8.67e-07 6.81e-06 1.001370006e-05 0.001196286974
16 0.1288 0.0509 0.0112 0.01522 4.7 0.000395 0.0204 0.00371 2690 2.72e-09 3.45e-06 4.11e-06 7.41e-07 9.49e-06 8.662400052e-06 0.001156915504
17 0.1101 0.0424 0.0131 0.01112 4.02 0.000274 0.0171 0.00306 2300 1.21e-09 2.77e-06 5.72e-06 5.91e-07 1.44e-05 8.434700044e-06 0.001287144212
18 0.09413 0.036 0.0149 0.008127 3.44 0.000185 0.0143 0.00251 1970 6.31e-10 2.26e-06 7.26e-06 4.5e-07 1.99e-05 8.075000038e-06 0.001574858801
19 0.08047 0.031 0.0163 0.005939 2.94 0.000125 0.0119 0.00203 1680 3.19e-10 1.96e-06 8.53e-06 3.19e-07 2.55e-05 7.638700032e-06 0.001759601853
20 0.0688 0.0268 0.0177 0.004341 2.51 9.16e-05 0.0098 0.00163 1440 1.66e-10 1.75e-06 9.56e-06 2.19e-07 2.89e-05 7.170800028e-06 0.00178383045
21 0.05859 0.0233 0.0177 0.003148 2.14 7.22e-05 0.00794 0.00129 1220 1.12e-10 1.62e-06 1.03e-05 1.56e-07 2.89e-05 7.156700023e-06 0.001520344458
22 0.04992 0.0203 0.0182 0.002285 1.82 6.15e-05 0.00635 0.00102 1040 8.59e-11 1.53e-06 1.08e-05 1.14e-07 2.73e-05 6.99520002e-06 0.001272001339
23 0.04256 0.0179 0.0177 0.001662 1.55 5.56e-05 0.00507 0.000837 890 6.77e-11 1.53e-06 1.1e-05 8.81e-08 2.44e-05 6.726000017e-06 0.0009085723852
24 0.03632 0.0156 0.0168 0.00121 1.33 5.09e-05 0.00406 0.000681 759 5.23e-11 1.64e-06 1.11e-05 6.9e-08 2.12e-05 6.383400015e-06 0.0005996577743
25 0.03102 0.0137 0.0159 0.0008824 1.13 4.65e-05 0.00327 0.000545 648 3.82e-11 2.12e-06 1.16e-05 5.43e-08 1.74e-05 5.745300012e-06 0.0003967432749
30 0.01425 0.00673 0.00934 0.0001861 0.52 2.44e-05 0.0013 0.000202 298 9.05e-12 3.49e-06 8.78e-06 1.91e-08 5.33e-06 2.572740006e-06 0.0001005486773
35 0.006549 0.00321 0.00513 3.934e-05 0.239 1.32e-05 0.000489 6.07e-05 137 1.19e-12 4.68e-06 4.77e-06 7.6e-09 1.07e-06 4.769049026e-07 1.302287086e-05
40 0.003092 0.00155 0.00226 8.768e-06 0.113 7.72e-06 0.000174 1.4e-05 64.6 9.09e-14 3.46e-06 1.25e-06 4.21e-09 1.65e-07 2.328148544e-08 5.057719611e-06
45 0.001522 0.000795 0.000799 2.123e-06 0.0555 4.93e-06 5.52e-05 2.42e-06 31.8 4.53e-15 1.78e-06 1.75e-07 3.2e-09 1.84e-08 2.545503693e-09 2.422859694e-06
50 0.0007946 0.000415 0.000246 5.791e-07 0.029 3.65e-06 1.67e-05 3.78e-07 16.6 5.67e-16 8.18e-07 3.52e-08 2.83e-09 4.41e-09 8.755627929e-10 1.272001339e-06
55 0.0004396 0.000224 7.91e-05 1.772e-07 0.016 2.92e-06 7.25e-06 1.32e-07 9.19 2.11e-16 4.44e-07 1.49e-08 2.02e-09 1.96e-09 4.215237488e-10 6.684064181e-07
60 0.0002396 0.000114 2.64e-05 5.266e-08 0.00875 2.57e-06 3.59e-06 4.95e-08 5.01 8.77e-17 2.42e-07 6.83e-09 1.23e-09 9.2e-10 2.104960071e-10 3.510117982e-07
70 6.41e-05 2.24e-05 1.92e-06 3.768e-09 0.00234 1.96e-06 9.61e-07 7.36e-09 1.34 1.65e-17 7.37e-08 1.48e-09 2.77e-10 2.1e-10 5.010136211e-11 9.691438776e-08
80 1.428e-05 2.93e-06 4.28e-07 1.871e-10 0.000518 2.14e-06 2.14e-07 1.01e-09 0.299 2.91e-18 3.83e-08 2.89e-10 1.9e-11 4.3e-11 9.82443452e-12 1.755058991e-08
100 4.424e-07 1.77e-08 1.77e-08 1.795e-13 9.54e-06 7.48e-07 5.31e-09 1.47e-11 0.00708 6.55e-20 9.2e-08 7.52e-12 1.58e-14 1.21e-12 8.014327738e-14 5.754291773e-10
* Equivalent Absorption Cross Section Vertical Distribution: band mol 0km(1/atm-cm) 1km(1/atm-cm) 2km(1/atm-cm) 3km(1/atm-cm) 4km(1/atm-cm) 5km(1/atm-cm) 6km(1/atm-cm) 7km(1/atm-cm) 8km(1/atm-cm) 9km(1/atm-cm) 10km(1/atm-cm) 11km(1/atm-cm) 12km(1/atm-cm) 13km(1/atm-cm) 14km(1/atm-cm) 15km(1/atm-cm) 16km(1/atm-cm) 17km(1/atm-cm) 18km(1/atm-cm) 19km(1/atm-cm) 20km(1/atm-cm) 21km(1/atm-cm) 22km(1/atm-cm) 23km(1/atm-cm) 24km(1/atm-cm) 25km(1/atm-cm) 30km(1/atm-cm) 35km(1/atm-cm) 40km(1/atm-cm) 45km(1/atm-cm) 50km(1/atm-cm) 55km(1/atm-cm) 60km(1/atm-cm) 70km(1/atm-cm) 80km(1/atm-cm) 100km(1/atm-cm)	* 5
0 co2 1.557221045e-05 1.472646534e-05 1.405531589e-05 1.346719616e-05 1.281430857e-05 1.199655708e-05 1.18144421e-05 1.116015883e-05 1.094957319e-05 9.832272788e-06 9.108399259e-06 8.727357161e-06 8.310664545e-06 8.855246156e-06 7.765139985e-06 7.903974206e-06 7.092907896e-06 8.292703261e-06 7.791185292e-06 5.669217706e-06 6.640438269e-06 7.788551428e-06 9.157967063e-06 1.075322584e-05 7.618920212e-06 8.967401665e-06 0 0 0 0 0 0 0 0 0 0
0 h2o 1.208314924e-05 1.130531092e-05 1.050302989e-05 9.699265162e-06 8.885510971e-06 8.019971256e-06 7.389309106e-06 6.45674056e-06 5.887209094e-06 5.013852766e-06 4.635683988e-06 3.721052288e-06 2.750249413e-06 0 0 0 0 0 0 0 0 0 0 0 0 0 0 0 0 0 0 0 0 0 0 0
0 o3 0 0 0 0 0 0 0 0 0 0 0 0 0 0 0.001307081765 0.001700765312 0.001488169648 0.001272328249 0.001118624165 0.001022546016 0.0009416666698 0.0009416666698 0.0009157967063 0.0009416666698 0.0009921130985 0.001048270444 0.001784528914 0 0 0 0 0 0 0 0 0
0 ch4 0.008086467646 0.008152793862 0.008182778148 0.008140287413 0.008172593914 0.008230273904 0.008274827574 0.008252182708 0.008243029213 0.008297457328 0.008292485422 0.008354603415 0.008351129902 0.008382895636 0.008310974746 0.008293915909 0.008338168039 0.008439609758 0.008584118014 0.008264505526 0.008541443131 0.008612617222 0.008158401426 0.008123127284 0.008545208952 0.008977109643 0.009138481653 0.0002692730252 0 0 0 0 0 0 0 0
0 n2o 0.3725154721 0.3758571179 0.3804185523 0.3848685807 0.3887911823 0.3940737398 0.4007259695 0.4060107181 0.4123866828 0.4198321887 0.4256765963 0.4350710085 0.4344796053 0.4332749717 0.4326564592 0.43234978 0.4319938335 0.4335210537 0.4332196796 0.4356252444 0.4339007989 0.4318204923 0.4370533304 0.4334435587 0.430507448 0.4299333671 0.4432756824 0.3975867942 0.1994467903 0 0 0 0 0 0 0
* Vertical Distribution: height(km) temperature(K) pressure(mb) 	* 36
0 288.15 1013.252
1 281.65 898.764
2 275.15 795.006
3 268.66 701.212
4 262.17 616.6
5 255.68 540.481
6 249.19 472.17
7 242.7 411.048
8 236.21 356.509
9 229.73 308
10 223.25 264.989
11 216.77 226.991
12 216.65 193.991
13 216.65 165.79
14 216.65 141.7
15 216.65 121.11
16 216.65 103.52
17 216.65 88.497
18 216.65 75.652
19 216.65 64.674
20 216.65 55.293
21 217.58 47.289
22 218.57 40.475
23 219.57 34.668
24 220.56 29.717
25 221.55 25.492
30 226.51 11.97
35 236.51 5.74592
40 250.35 2.871401
45 264.16 1.491004
50 270.65 0.79779
55 260.77 0.425249
60 247.02 0.21958
70 219.59 0.052209
80 198.64 0.010524
100 195.08 0.00032
